module gitlab.com/rollover-board/postservice

go 1.17

require (
	github.com/go-chi/chi v1.5.4
	github.com/go-kit/kit v0.12.0
	github.com/rs/xid v1.3.0
)

require (
	github.com/BurntSushi/toml v1.2.0
	google.golang.org/grpc v1.44.0
	google.golang.org/protobuf v1.28.0
)

require (
	github.com/go-kit/log v0.2.0 // indirect
	github.com/go-logfmt/logfmt v0.5.1 // indirect
	github.com/golang/protobuf v1.5.2 // indirect
	github.com/google/go-cmp v0.5.6 // indirect
	golang.org/x/net v0.0.0-20210917221730-978cfadd31cf // indirect
	golang.org/x/sys v0.0.0-20210917161153-d61c044b1678 // indirect
	golang.org/x/text v0.3.7 // indirect
	google.golang.org/genproto v0.0.0-20210917145530-b395a37504d4 // indirect
)
